[
  {
    "pizza": {
      "id": 14,
      "name": "Maltija",
      "description": "A typical Gozitan ftira has some of the same ingredients as a Maltese ftira; onion, anchovies or tuna, olives, capers, tomato and potato on an open flat bread, laid out and baked like a pizza.",
      "imgUrl": "http://www.pizzastore.loc/uploads/pizzas/14/napolitana_pizza.png",
      "thumbImgUrl": "http://www.pizzastore.loc/uploads/pizzas/14/small_napolitana_pizza.png",
      "ingredient": "tomato sauce, goat cheese, sun dried tomatoes, Maltese sausage, onion"
    },
    "pizza_size": 4,
    "sizeName": "XLarge",
    "base_price": "16.60",
    "fee": "0.00",
    "slice": 10,
    "order": 4
  },
  {
    "pizza": {
      "id": 10,
      "name": "The Works Pizza",
      "description": "And when the supreme just isn’t enough, you’re ready for the works. It’s a step up in heartiness from the supreme. The “works” usually involves a wide variety of veggie toppings including onions, olives, and mushrooms, plus bacon and pepperoni.",
      "imgUrl": "http://www.pizzastore.loc/uploads/pizzas/10/marinara_pizza.png",
      "thumbImgUrl": "http://www.pizzastore.loc/uploads/pizzas/10/small_marinara_pizza.png",
      "ingredient": "tomato sauce, goat cheese, sun dried tomatoes, Maltese sausage, onion"
    },
    "pizza_size": 4,
    "sizeName": "XLarge",
    "base_price": "13.80",
    "fee": "0.00",
    "slice": 10,
    "order": 4
  },
  {
    "pizza": {
      "id": 10,
      "name": "The Works Pizza",
      "description": "And when the supreme just isn’t enough, you’re ready for the works. It’s a step up in heartiness from the supreme. The “works” usually involves a wide variety of veggie toppings including onions, olives, and mushrooms, plus bacon and pepperoni.",
      "imgUrl": "http://www.pizzastore.loc/uploads/pizzas/10/marinara_pizza.png",
      "thumbImgUrl": "http://www.pizzastore.loc/uploads/pizzas/10/small_marinara_pizza.png",
      "ingredient": "tomato sauce, goat cheese, sun dried tomatoes, Maltese sausage, onion"
    },
    "pizza_size": 3,
    "sizeName": "Large",
    "base_price": "12.24",
    "fee": "0.00",
    "slice": 8,
    "order": 3
  },
  {
    "pizza": {
      "id": 10,
      "name": "The Works Pizza",
      "description": "And when the supreme just isn’t enough, you’re ready for the works. It’s a step up in heartiness from the supreme. The “works” usually involves a wide variety of veggie toppings including onions, olives, and mushrooms, plus bacon and pepperoni.",
      "imgUrl": "http://www.pizzastore.loc/uploads/pizzas/10/marinara_pizza.png",
      "thumbImgUrl": "http://www.pizzastore.loc/uploads/pizzas/10/small_marinara_pizza.png",
      "ingredient": "tomato sauce, goat cheese, sun dried tomatoes, Maltese sausage, onion"
    },
    "pizza_size": 2,
    "sizeName": "Medium",
    "base_price": "10.68",
    "fee": "0.00",
    "slice": 6,
    "order": 2
  },
  {
    "pizza": {
      "id": 10,
      "name": "The Works Pizza",
      "description": "And when the supreme just isn’t enough, you’re ready for the works. It’s a step up in heartiness from the supreme. The “works” usually involves a wide variety of veggie toppings including onions, olives, and mushrooms, plus bacon and pepperoni.",
      "imgUrl": "http://www.pizzastore.loc/uploads/pizzas/10/marinara_pizza.png",
      "thumbImgUrl": "http://www.pizzastore.loc/uploads/pizzas/10/small_marinara_pizza.png",
      "ingredient": "tomato sauce, goat cheese, sun dried tomatoes, Maltese sausage, onion"
    },
    "pizza_size": 1,
    "sizeName": "Small",
    "base_price": "9.12",
    "fee": "0.00",
    "slice": 4,
    "order": 1
  },
  {
    "pizza": {
      "id": 9,
      "name": "Supreme Pizza",
      "description": "When you can’t decide which toppings to get, it’s time for the supreme pizza. The “supreme” refers to the litany of toppings that come scattered on these pies, from sausage to vegetables to pepperoni. And it’s the combination of the flavors that really makes it sing.",
      "imgUrl": "http://www.pizzastore.loc/uploads/pizzas/9/pepperoni_pizza.png",
      "thumbImgUrl": "http://www.pizzastore.loc/uploads/pizzas/9/small_pepperoni_pizza.png",
      "ingredient": "tomato sauce, anchovies, olives, capers"
    },
    "pizza_size": 4,
    "sizeName": "XLarge",
    "base_price": "17.60",
    "fee": "0.00",
    "slice": 10,
    "order": 4
  },
  {
    "pizza": {
      "id": 9,
      "name": "Supreme Pizza",
      "description": "When you can’t decide which toppings to get, it’s time for the supreme pizza. The “supreme” refers to the litany of toppings that come scattered on these pies, from sausage to vegetables to pepperoni. And it’s the combination of the flavors that really makes it sing.",
      "imgUrl": "http://www.pizzastore.loc/uploads/pizzas/9/pepperoni_pizza.png",
      "thumbImgUrl": "http://www.pizzastore.loc/uploads/pizzas/9/small_pepperoni_pizza.png",
      "ingredient": "tomato sauce, anchovies, olives, capers"
    },
    "pizza_size": 3,
    "sizeName": "Large",
    "base_price": "16.04",
    "fee": "0.00",
    "slice": 8,
    "order": 3
  },
  {
    "pizza": {
      "id": 9,
      "name": "Supreme Pizza",
      "description": "When you can’t decide which toppings to get, it’s time for the supreme pizza. The “supreme” refers to the litany of toppings that come scattered on these pies, from sausage to vegetables to pepperoni. And it’s the combination of the flavors that really makes it sing.",
      "imgUrl": "http://www.pizzastore.loc/uploads/pizzas/9/pepperoni_pizza.png",
      "thumbImgUrl": "http://www.pizzastore.loc/uploads/pizzas/9/small_pepperoni_pizza.png",
      "ingredient": "tomato sauce, anchovies, olives, capers"
    },
    "pizza_size": 2,
    "sizeName": "Medium",
    "base_price": "14.48",
    "fee": "0.00",
    "slice": 6,
    "order": 2
  },
  {
    "pizza": {
      "id": 9,
      "name": "Supreme Pizza",
      "description": "When you can’t decide which toppings to get, it’s time for the supreme pizza. The “supreme” refers to the litany of toppings that come scattered on these pies, from sausage to vegetables to pepperoni. And it’s the combination of the flavors that really makes it sing.",
      "imgUrl": "http://www.pizzastore.loc/uploads/pizzas/9/pepperoni_pizza.png",
      "thumbImgUrl": "http://www.pizzastore.loc/uploads/pizzas/9/small_pepperoni_pizza.png",
      "ingredient": "tomato sauce, anchovies, olives, capers"
    },
    "pizza_size": 1,
    "sizeName": "Small",
    "base_price": "12.92",
    "fee": "0.00",
    "slice": 4,
    "order": 1
  },
  {
    "pizza": {
      "id": 8,
      "name": "Buffalo Pizza",
      "description": "Who says your pizza has to be strictly tomato-sauce based? Branch out with some buffalo sauce on your pie. All its spicy, salty, buttery goodness is a natural pairing for pizza.",
      "imgUrl": "http://www.pizzastore.loc/uploads/pizzas/8/hawaiian_pizza.png",
      "thumbImgUrl": "http://www.pizzastore.loc/uploads/pizzas/8/small_hawaiian_pizza.png",
      "ingredient": "tomato sauce, mozzarella, mushrooms, ham, eggs, artichoke, cocktail sausages, green olives"
    },
    "pizza_size": 4,
    "sizeName": "XLarge",
    "base_price": "15.00",
    "fee": "0.00",
    "slice": 10,
    "order": 4
  },
  {
    "pizza": {
      "id": 8,
      "name": "Buffalo Pizza",
      "description": "Who says your pizza has to be strictly tomato-sauce based? Branch out with some buffalo sauce on your pie. All its spicy, salty, buttery goodness is a natural pairing for pizza.",
      "imgUrl": "http://www.pizzastore.loc/uploads/pizzas/8/hawaiian_pizza.png",
      "thumbImgUrl": "http://www.pizzastore.loc/uploads/pizzas/8/small_hawaiian_pizza.png",
      "ingredient": "tomato sauce, mozzarella, mushrooms, ham, eggs, artichoke, cocktail sausages, green olives"
    },
    "pizza_size": 3,
    "sizeName": "Large",
    "base_price": "13.44",
    "fee": "0.00",
    "slice": 8,
    "order": 3
  },
  {
    "pizza": {
      "id": 8,
      "name": "Buffalo Pizza",
      "description": "Who says your pizza has to be strictly tomato-sauce based? Branch out with some buffalo sauce on your pie. All its spicy, salty, buttery goodness is a natural pairing for pizza.",
      "imgUrl": "http://www.pizzastore.loc/uploads/pizzas/8/hawaiian_pizza.png",
      "thumbImgUrl": "http://www.pizzastore.loc/uploads/pizzas/8/small_hawaiian_pizza.png",
      "ingredient": "tomato sauce, mozzarella, mushrooms, ham, eggs, artichoke, cocktail sausages, green olives"
    },
    "pizza_size": 2,
    "sizeName": "Medium",
    "base_price": "11.88",
    "fee": "0.00",
    "slice": 6,
    "order": 2
  },
  {
    "pizza": {
      "id": 11,
      "name": "Capricciosa",
      "description": "Pizza capricciosa is a style of pizza in Italian cuisine prepared with mozzarella cheese, Italian baked ham, mushroom, artichoke and tomato. Types of edible mushrooms used may include cremini and others. Some versions may also use prosciutto, marinated artichoke hearts, olive oil, olives, basil leaves, and egg.",
      "imgUrl": "http://www.pizzastore.loc/uploads/pizzas/11/capricciosa_pizza.png",
      "thumbImgUrl": "http://www.pizzastore.loc/uploads/pizzas/11/small_capricciosa_pizza.png",
      "ingredient": "tomato sauce, mozzarella, mushrooms, ham, eggs, artichoke, cocktail sausages, green olives"
    },
    "pizza_size": 1,
    "sizeName": "Small",
    "base_price": "9.12",
    "fee": "0.00",
    "slice": 4,
    "order": 1
  },
  {
    "pizza": {
      "id": 11,
      "name": "Capricciosa",
      "description": "Pizza capricciosa is a style of pizza in Italian cuisine prepared with mozzarella cheese, Italian baked ham, mushroom, artichoke and tomato. Types of edible mushrooms used may include cremini and others. Some versions may also use prosciutto, marinated artichoke hearts, olive oil, olives, basil leaves, and egg.",
      "imgUrl": "http://www.pizzastore.loc/uploads/pizzas/11/capricciosa_pizza.png",
      "thumbImgUrl": "http://www.pizzastore.loc/uploads/pizzas/11/small_capricciosa_pizza.png",
      "ingredient": "tomato sauce, mozzarella, mushrooms, ham, eggs, artichoke, cocktail sausages, green olives"
    },
    "pizza_size": 2,
    "sizeName": "Medium",
    "base_price": "10.68",
    "fee": "0.00",
    "slice": 6,
    "order": 2
  },
  {
    "pizza": {
      "id": 11,
      "name": "Capricciosa",
      "description": "Pizza capricciosa is a style of pizza in Italian cuisine prepared with mozzarella cheese, Italian baked ham, mushroom, artichoke and tomato. Types of edible mushrooms used may include cremini and others. Some versions may also use prosciutto, marinated artichoke hearts, olive oil, olives, basil leaves, and egg.",
      "imgUrl": "http://www.pizzastore.loc/uploads/pizzas/11/capricciosa_pizza.png",
      "thumbImgUrl": "http://www.pizzastore.loc/uploads/pizzas/11/small_capricciosa_pizza.png",
      "ingredient": "tomato sauce, mozzarella, mushrooms, ham, eggs, artichoke, cocktail sausages, green olives"
    },
    "pizza_size": 3,
    "sizeName": "Large",
    "base_price": "12.24",
    "fee": "0.00",
    "slice": 8,
    "order": 3
  },
  {
    "pizza": {
      "id": 14,
      "name": "Maltija",
      "description": "A typical Gozitan ftira has some of the same ingredients as a Maltese ftira; onion, anchovies or tuna, olives, capers, tomato and potato on an open flat bread, laid out and baked like a pizza.",
      "imgUrl": "http://www.pizzastore.loc/uploads/pizzas/14/napolitana_pizza.png",
      "thumbImgUrl": "http://www.pizzastore.loc/uploads/pizzas/14/small_napolitana_pizza.png",
      "ingredient": "tomato sauce, goat cheese, sun dried tomatoes, Maltese sausage, onion"
    },
    "pizza_size": 3,
    "sizeName": "Large",
    "base_price": "15.04",
    "fee": "0.00",
    "slice": 8,
    "order": 3
  },
  {
    "pizza": {
      "id": 14,
      "name": "Maltija",
      "description": "A typical Gozitan ftira has some of the same ingredients as a Maltese ftira; onion, anchovies or tuna, olives, capers, tomato and potato on an open flat bread, laid out and baked like a pizza.",
      "imgUrl": "http://www.pizzastore.loc/uploads/pizzas/14/napolitana_pizza.png",
      "thumbImgUrl": "http://www.pizzastore.loc/uploads/pizzas/14/small_napolitana_pizza.png",
      "ingredient": "tomato sauce, goat cheese, sun dried tomatoes, Maltese sausage, onion"
    },
    "pizza_size": 2,
    "sizeName": "Medium",
    "base_price": "13.48",
    "fee": "0.00",
    "slice": 6,
    "order": 2
  },
  {
    "pizza": {
      "id": 14,
      "name": "Maltija",
      "description": "A typical Gozitan ftira has some of the same ingredients as a Maltese ftira; onion, anchovies or tuna, olives, capers, tomato and potato on an open flat bread, laid out and baked like a pizza.",
      "imgUrl": "http://www.pizzastore.loc/uploads/pizzas/14/napolitana_pizza.png",
      "thumbImgUrl": "http://www.pizzastore.loc/uploads/pizzas/14/small_napolitana_pizza.png",
      "ingredient": "tomato sauce, goat cheese, sun dried tomatoes, Maltese sausage, onion"
    },
    "pizza_size": 1,
    "sizeName": "Small",
    "base_price": "11.92",
    "fee": "0.00",
    "slice": 4,
    "order": 1
  },
  {
    "pizza": {
      "id": 13,
      "name": "Napolitana",
      "description": "Neapolitan pizza also known as Naples-style pizza, is a style of pizza made with tomatoes and mozzarella cheese. ",
      "imgUrl": "http://www.pizzastore.loc/uploads/pizzas/13/napolitana_pizza.png",
      "thumbImgUrl": "http://www.pizzastore.loc/uploads/pizzas/13/small_napolitana_pizza.png",
      "ingredient": " tomato sauce, anchovies, olives, capers"
    },
    "pizza_size": 4,
    "sizeName": "XLarge",
    "base_price": "17.30",
    "fee": "0.00",
    "slice": 10,
    "order": 4
  },
  {
    "pizza": {
      "id": 13,
      "name": "Napolitana",
      "description": "Neapolitan pizza also known as Naples-style pizza, is a style of pizza made with tomatoes and mozzarella cheese. ",
      "imgUrl": "http://www.pizzastore.loc/uploads/pizzas/13/napolitana_pizza.png",
      "thumbImgUrl": "http://www.pizzastore.loc/uploads/pizzas/13/small_napolitana_pizza.png",
      "ingredient": " tomato sauce, anchovies, olives, capers"
    },
    "pizza_size": 3,
    "sizeName": "Large",
    "base_price": "15.74",
    "fee": "0.00",
    "slice": 8,
    "order": 3
  },
  {
    "pizza": {
      "id": 13,
      "name": "Napolitana",
      "description": "Neapolitan pizza also known as Naples-style pizza, is a style of pizza made with tomatoes and mozzarella cheese. ",
      "imgUrl": "http://www.pizzastore.loc/uploads/pizzas/13/napolitana_pizza.png",
      "thumbImgUrl": "http://www.pizzastore.loc/uploads/pizzas/13/small_napolitana_pizza.png",
      "ingredient": " tomato sauce, anchovies, olives, capers"
    },
    "pizza_size": 2,
    "sizeName": "Medium",
    "base_price": "14.18",
    "fee": "0.00",
    "slice": 6,
    "order": 2
  },
  {
    "pizza": {
      "id": 12,
      "name": "Marinara",
      "description": "Pizza marinara is a style of Neapolitan pizza in Italian cuisine seasoned with only tomatoes, extra virgin olive oil, oregano and garlic. The name has little to do with the marinara sauce, besides sharing a similar origin.",
      "imgUrl": "http://www.pizzastore.loc/uploads/pizzas/12/marinara_pizza.png",
      "thumbImgUrl": "http://www.pizzastore.loc/uploads/pizzas/12/small_marinara_pizza.png",
      "ingredient": "tomato sauce, mozzarella, shrimps, mussels, tuna, calamari, crab meat"
    },
    "pizza_size": 4,
    "sizeName": "XLarge",
    "base_price": "15.90",
    "fee": "0.00",
    "slice": 10,
    "order": 4
  },
  {
    "pizza": {
      "id": 12,
      "name": "Marinara",
      "description": "Pizza marinara is a style of Neapolitan pizza in Italian cuisine seasoned with only tomatoes, extra virgin olive oil, oregano and garlic. The name has little to do with the marinara sauce, besides sharing a similar origin.",
      "imgUrl": "http://www.pizzastore.loc/uploads/pizzas/12/marinara_pizza.png",
      "thumbImgUrl": "http://www.pizzastore.loc/uploads/pizzas/12/small_marinara_pizza.png",
      "ingredient": "tomato sauce, mozzarella, shrimps, mussels, tuna, calamari, crab meat"
    },
    "pizza_size": 3,
    "sizeName": "Large",
    "base_price": "14.34",
    "fee": "0.00",
    "slice": 8,
    "order": 3
  },
  {
    "pizza": {
      "id": 12,
      "name": "Marinara",
      "description": "Pizza marinara is a style of Neapolitan pizza in Italian cuisine seasoned with only tomatoes, extra virgin olive oil, oregano and garlic. The name has little to do with the marinara sauce, besides sharing a similar origin.",
      "imgUrl": "http://www.pizzastore.loc/uploads/pizzas/12/marinara_pizza.png",
      "thumbImgUrl": "http://www.pizzastore.loc/uploads/pizzas/12/small_marinara_pizza.png",
      "ingredient": "tomato sauce, mozzarella, shrimps, mussels, tuna, calamari, crab meat"
    },
    "pizza_size": 2,
    "sizeName": "Medium",
    "base_price": "12.78",
    "fee": "0.00",
    "slice": 6,
    "order": 2
  },
  {
    "pizza": {
      "id": 12,
      "name": "Marinara",
      "description": "Pizza marinara is a style of Neapolitan pizza in Italian cuisine seasoned with only tomatoes, extra virgin olive oil, oregano and garlic. The name has little to do with the marinara sauce, besides sharing a similar origin.",
      "imgUrl": "http://www.pizzastore.loc/uploads/pizzas/12/marinara_pizza.png",
      "thumbImgUrl": "http://www.pizzastore.loc/uploads/pizzas/12/small_marinara_pizza.png",
      "ingredient": "tomato sauce, mozzarella, shrimps, mussels, tuna, calamari, crab meat"
    },
    "pizza_size": 1,
    "sizeName": "Small",
    "base_price": "11.22",
    "fee": "0.00",
    "slice": 4,
    "order": 1
  },
  {
    "pizza": {
      "id": 11,
      "name": "Capricciosa",
      "description": "Pizza capricciosa is a style of pizza in Italian cuisine prepared with mozzarella cheese, Italian baked ham, mushroom, artichoke and tomato. Types of edible mushrooms used may include cremini and others. Some versions may also use prosciutto, marinated artichoke hearts, olive oil, olives, basil leaves, and egg.",
      "imgUrl": "http://www.pizzastore.loc/uploads/pizzas/11/capricciosa_pizza.png",
      "thumbImgUrl": "http://www.pizzastore.loc/uploads/pizzas/11/small_capricciosa_pizza.png",
      "ingredient": "tomato sauce, mozzarella, mushrooms, ham, eggs, artichoke, cocktail sausages, green olives"
    },
    "pizza_size": 4,
    "sizeName": "XLarge",
    "base_price": "13.80",
    "fee": "0.00",
    "slice": 10,
    "order": 4
  },
  {
    "pizza": {
      "id": 8,
      "name": "Buffalo Pizza",
      "description": "Who says your pizza has to be strictly tomato-sauce based? Branch out with some buffalo sauce on your pie. All its spicy, salty, buttery goodness is a natural pairing for pizza.",
      "imgUrl": "http://www.pizzastore.loc/uploads/pizzas/8/hawaiian_pizza.png",
      "thumbImgUrl": "http://www.pizzastore.loc/uploads/pizzas/8/small_hawaiian_pizza.png",
      "ingredient": "tomato sauce, mozzarella, mushrooms, ham, eggs, artichoke, cocktail sausages, green olives"
    },
    "pizza_size": 1,
    "sizeName": "Small",
    "base_price": "10.32",
    "fee": "0.00",
    "slice": 4,
    "order": 1
  },
  {
    "pizza": {
      "id": 7,
      "name": "Hawaiian Pizza",
      "description": "Pineapple might not be the first thing that comes to mind when you think pizza. But add in some ham and it creates an unexpectedly solid sweet and salty combination for this type of pizza.",
      "imgUrl": "http://www.pizzastore.loc/uploads/pizzas/7/hawaiian_pizza.png",
      "thumbImgUrl": "http://www.pizzastore.loc/uploads/pizzas/7/small_hawaiian_pizza.png",
      "ingredient": "tomato sauce, goat cheese, sun dried tomatoes, Maltese sausage, onion"
    },
    "pizza_size": 4,
    "sizeName": "XLarge",
    "base_price": "13.80",
    "fee": "0.00",
    "slice": 10,
    "order": 4
  },
  {
    "pizza": {
      "id": 7,
      "name": "Hawaiian Pizza",
      "description": "Pineapple might not be the first thing that comes to mind when you think pizza. But add in some ham and it creates an unexpectedly solid sweet and salty combination for this type of pizza.",
      "imgUrl": "http://www.pizzastore.loc/uploads/pizzas/7/hawaiian_pizza.png",
      "thumbImgUrl": "http://www.pizzastore.loc/uploads/pizzas/7/small_hawaiian_pizza.png",
      "ingredient": "tomato sauce, goat cheese, sun dried tomatoes, Maltese sausage, onion"
    },
    "pizza_size": 3,
    "sizeName": "Large",
    "base_price": "12.24",
    "fee": "0.00",
    "slice": 8,
    "order": 3
  },
  {
    "pizza": {
      "id": 13,
      "name": "Napolitana",
      "description": "Neapolitan pizza also known as Naples-style pizza, is a style of pizza made with tomatoes and mozzarella cheese. ",
      "imgUrl": "http://www.pizzastore.loc/uploads/pizzas/13/napolitana_pizza.png",
      "thumbImgUrl": "http://www.pizzastore.loc/uploads/pizzas/13/small_napolitana_pizza.png",
      "ingredient": " tomato sauce, anchovies, olives, capers"
    },
    "pizza_size": 1,
    "sizeName": "Small",
    "base_price": "12.62",
    "fee": "0.00",
    "slice": 4,
    "order": 1
  },
  {
    "pizza": {
      "id": 4,
      "name": "Meat Pizza",
      "description": "If pepperoni just isn’t enough, and you’re looking for a pie with a bit more heft, a meat pizza is a perfect and popular choice. Pile on ground beef and sausage for a hearty meal.",
      "imgUrl": "http://www.pizzastore.loc/uploads/pizzas/4/margherita_pizza.png",
      "thumbImgUrl": "http://www.pizzastore.loc/uploads/pizzas/4/small_margherita_pizza.png",
      "ingredient": "tomato sauce, goat cheese, sun dried tomatoes, Maltese sausage, onion"
    },
    "pizza_size": 3,
    "sizeName": "Large",
    "base_price": "14.54",
    "fee": "0.00",
    "slice": 8,
    "order": 3
  },
  {
    "pizza": {
      "id": 4,
      "name": "Meat Pizza",
      "description": "If pepperoni just isn’t enough, and you’re looking for a pie with a bit more heft, a meat pizza is a perfect and popular choice. Pile on ground beef and sausage for a hearty meal.",
      "imgUrl": "http://www.pizzastore.loc/uploads/pizzas/4/margherita_pizza.png",
      "thumbImgUrl": "http://www.pizzastore.loc/uploads/pizzas/4/small_margherita_pizza.png",
      "ingredient": "tomato sauce, goat cheese, sun dried tomatoes, Maltese sausage, onion"
    },
    "pizza_size": 4,
    "sizeName": "XLarge",
    "base_price": "16.10",
    "fee": "0.00",
    "slice": 10,
    "order": 4
  },
  {
    "pizza": {
      "id": 5,
      "name": "Margherita Pizza",
      "description": "Deceptively simple, the Margherita pizza is made with basil, fresh mozzarella, and tomatoes. There’s a reason it’s an Italian staple and one of the most popular types of pizza in the country.",
      "imgUrl": "http://www.pizzastore.loc/uploads/pizzas/5/margherita_pizza.png",
      "thumbImgUrl": "http://www.pizzastore.loc/uploads/pizzas/5/small_margherita_pizza.png",
      "ingredient": "tomato sauce, anchovies, olives, capers"
    },
    "pizza_size": 1,
    "sizeName": "Small",
    "base_price": "8.32",
    "fee": "0.00",
    "slice": 4,
    "order": 1
  },
  {
    "pizza": {
      "id": 5,
      "name": "Margherita Pizza",
      "description": "Deceptively simple, the Margherita pizza is made with basil, fresh mozzarella, and tomatoes. There’s a reason it’s an Italian staple and one of the most popular types of pizza in the country.",
      "imgUrl": "http://www.pizzastore.loc/uploads/pizzas/5/margherita_pizza.png",
      "thumbImgUrl": "http://www.pizzastore.loc/uploads/pizzas/5/small_margherita_pizza.png",
      "ingredient": "tomato sauce, anchovies, olives, capers"
    },
    "pizza_size": 2,
    "sizeName": "Medium",
    "base_price": "9.88",
    "fee": "0.00",
    "slice": 6,
    "order": 2
  },
  {
    "pizza": {
      "id": 5,
      "name": "Margherita Pizza",
      "description": "Deceptively simple, the Margherita pizza is made with basil, fresh mozzarella, and tomatoes. There’s a reason it’s an Italian staple and one of the most popular types of pizza in the country.",
      "imgUrl": "http://www.pizzastore.loc/uploads/pizzas/5/margherita_pizza.png",
      "thumbImgUrl": "http://www.pizzastore.loc/uploads/pizzas/5/small_margherita_pizza.png",
      "ingredient": "tomato sauce, anchovies, olives, capers"
    },
    "pizza_size": 3,
    "sizeName": "Large",
    "base_price": "11.44",
    "fee": "0.00",
    "slice": 8,
    "order": 3
  },
  {
    "pizza": {
      "id": 5,
      "name": "Margherita Pizza",
      "description": "Deceptively simple, the Margherita pizza is made with basil, fresh mozzarella, and tomatoes. There’s a reason it’s an Italian staple and one of the most popular types of pizza in the country.",
      "imgUrl": "http://www.pizzastore.loc/uploads/pizzas/5/margherita_pizza.png",
      "thumbImgUrl": "http://www.pizzastore.loc/uploads/pizzas/5/small_margherita_pizza.png",
      "ingredient": "tomato sauce, anchovies, olives, capers"
    },
    "pizza_size": 4,
    "sizeName": "XLarge",
    "base_price": "13.00",
    "fee": "0.00",
    "slice": 10,
    "order": 4
  },
  {
    "pizza": {
      "id": 6,
      "name": "BBQ Chicken Pizza",
      "description": "If you love BBQ chicken and you love pizza, why not put them together? This has long been a cult favorite of sports fans and college kids. The chicken slathered over the top of a pie gives it a tangy, sweet flavor that can’t be beaten.",
      "imgUrl": "http://www.pizzastore.loc/uploads/pizzas/6/pepperoni_pizza.png",
      "thumbImgUrl": "http://www.pizzastore.loc/uploads/pizzas/6/small_pepperoni_pizza.png",
      "ingredient": "tomato sauce, mozzarella, mushrooms, ham, eggs, artichoke, cocktail sausages, green olives"
    },
    "pizza_size": 1,
    "sizeName": "Small",
    "base_price": "10.12",
    "fee": "0.00",
    "slice": 4,
    "order": 1
  },
  {
    "pizza": {
      "id": 7,
      "name": "Hawaiian Pizza",
      "description": "Pineapple might not be the first thing that comes to mind when you think pizza. But add in some ham and it creates an unexpectedly solid sweet and salty combination for this type of pizza.",
      "imgUrl": "http://www.pizzastore.loc/uploads/pizzas/7/hawaiian_pizza.png",
      "thumbImgUrl": "http://www.pizzastore.loc/uploads/pizzas/7/small_hawaiian_pizza.png",
      "ingredient": "tomato sauce, goat cheese, sun dried tomatoes, Maltese sausage, onion"
    },
    "pizza_size": 1,
    "sizeName": "Small",
    "base_price": "9.12",
    "fee": "0.00",
    "slice": 4,
    "order": 1
  },
  {
    "pizza": {
      "id": 6,
      "name": "BBQ Chicken Pizza",
      "description": "If you love BBQ chicken and you love pizza, why not put them together? This has long been a cult favorite of sports fans and college kids. The chicken slathered over the top of a pie gives it a tangy, sweet flavor that can’t be beaten.",
      "imgUrl": "http://www.pizzastore.loc/uploads/pizzas/6/pepperoni_pizza.png",
      "thumbImgUrl": "http://www.pizzastore.loc/uploads/pizzas/6/small_pepperoni_pizza.png",
      "ingredient": "tomato sauce, mozzarella, mushrooms, ham, eggs, artichoke, cocktail sausages, green olives"
    },
    "pizza_size": 4,
    "sizeName": "XLarge",
    "base_price": "14.80",
    "fee": "0.00",
    "slice": 10,
    "order": 4
  },
  {
    "pizza": {
      "id": 6,
      "name": "BBQ Chicken Pizza",
      "description": "If you love BBQ chicken and you love pizza, why not put them together? This has long been a cult favorite of sports fans and college kids. The chicken slathered over the top of a pie gives it a tangy, sweet flavor that can’t be beaten.",
      "imgUrl": "http://www.pizzastore.loc/uploads/pizzas/6/pepperoni_pizza.png",
      "thumbImgUrl": "http://www.pizzastore.loc/uploads/pizzas/6/small_pepperoni_pizza.png",
      "ingredient": "tomato sauce, mozzarella, mushrooms, ham, eggs, artichoke, cocktail sausages, green olives"
    },
    "pizza_size": 3,
    "sizeName": "Large",
    "base_price": "13.24",
    "fee": "0.00",
    "slice": 8,
    "order": 3
  },
  {
    "pizza": {
      "id": 6,
      "name": "BBQ Chicken Pizza",
      "description": "If you love BBQ chicken and you love pizza, why not put them together? This has long been a cult favorite of sports fans and college kids. The chicken slathered over the top of a pie gives it a tangy, sweet flavor that can’t be beaten.",
      "imgUrl": "http://www.pizzastore.loc/uploads/pizzas/6/pepperoni_pizza.png",
      "thumbImgUrl": "http://www.pizzastore.loc/uploads/pizzas/6/small_pepperoni_pizza.png",
      "ingredient": "tomato sauce, mozzarella, mushrooms, ham, eggs, artichoke, cocktail sausages, green olives"
    },
    "pizza_size": 2,
    "sizeName": "Medium",
    "base_price": "11.68",
    "fee": "0.00",
    "slice": 6,
    "order": 2
  },
  {
    "pizza": {
      "id": 7,
      "name": "Hawaiian Pizza",
      "description": "Pineapple might not be the first thing that comes to mind when you think pizza. But add in some ham and it creates an unexpectedly solid sweet and salty combination for this type of pizza.",
      "imgUrl": "http://www.pizzastore.loc/uploads/pizzas/7/hawaiian_pizza.png",
      "thumbImgUrl": "http://www.pizzastore.loc/uploads/pizzas/7/small_hawaiian_pizza.png",
      "ingredient": "tomato sauce, goat cheese, sun dried tomatoes, Maltese sausage, onion"
    },
    "pizza_size": 2,
    "sizeName": "Medium",
    "base_price": "10.68",
    "fee": "0.00",
    "slice": 6,
    "order": 2
  },
  {
    "pizza": {
      "id": 1,
      "name": "Cheese Pizza",
      "description": "It should be no shocker that a classic is the statistical favorite. Cheese pizza is one of the most popular choices. It will always be a simple, unadorned masterpiece on its own.",
      "imgUrl": "http://www.pizzastore.loc/uploads/pizzas/1/napolitana_pizza.png",
      "thumbImgUrl": "http://www.pizzastore.loc/uploads/pizzas/1/small_napolitana_pizza.png",
      "ingredient": "tomato sauce, anchovies, olives, capers"
    },
    "pizza_size": 2,
    "sizeName": "Medium",
    "base_price": "12.58",
    "fee": "0.00",
    "slice": 6,
    "order": 2
  },
  {
    "pizza": {
      "id": 1,
      "name": "Cheese Pizza",
      "description": "It should be no shocker that a classic is the statistical favorite. Cheese pizza is one of the most popular choices. It will always be a simple, unadorned masterpiece on its own.",
      "imgUrl": "http://www.pizzastore.loc/uploads/pizzas/1/napolitana_pizza.png",
      "thumbImgUrl": "http://www.pizzastore.loc/uploads/pizzas/1/small_napolitana_pizza.png",
      "ingredient": "tomato sauce, anchovies, olives, capers"
    },
    "pizza_size": 3,
    "sizeName": "Large",
    "base_price": "14.14",
    "fee": "0.00",
    "slice": 8,
    "order": 3
  },
  {
    "pizza": {
      "id": 1,
      "name": "Cheese Pizza",
      "description": "It should be no shocker that a classic is the statistical favorite. Cheese pizza is one of the most popular choices. It will always be a simple, unadorned masterpiece on its own.",
      "imgUrl": "http://www.pizzastore.loc/uploads/pizzas/1/napolitana_pizza.png",
      "thumbImgUrl": "http://www.pizzastore.loc/uploads/pizzas/1/small_napolitana_pizza.png",
      "ingredient": "tomato sauce, anchovies, olives, capers"
    },
    "pizza_size": 4,
    "sizeName": "XLarge",
    "base_price": "15.70",
    "fee": "0.00",
    "slice": 10,
    "order": 4
  },
  {
    "pizza": {
      "id": 2,
      "name": "Veggie Pizza",
      "description": "When you want to jazz up your cheese pizza with color and texture, veggies are the perfect topping. And you’re only limited by your imagination. Everything from peppers and mushrooms, to eggplant and onions make for an exciting and tasty veggie pizza.",
      "imgUrl": "http://www.pizzastore.loc/uploads/pizzas/2/napolitana_pizza.png",
      "thumbImgUrl": "http://www.pizzastore.loc/uploads/pizzas/2/small_napolitana_pizza.png",
      "ingredient": "tomato sauce, anchovies, olives, capers"
    },
    "pizza_size": 1,
    "sizeName": "Small",
    "base_price": "9.52",
    "fee": "0.00",
    "slice": 4,
    "order": 1
  },
  {
    "pizza": {
      "id": 2,
      "name": "Veggie Pizza",
      "description": "When you want to jazz up your cheese pizza with color and texture, veggies are the perfect topping. And you’re only limited by your imagination. Everything from peppers and mushrooms, to eggplant and onions make for an exciting and tasty veggie pizza.",
      "imgUrl": "http://www.pizzastore.loc/uploads/pizzas/2/napolitana_pizza.png",
      "thumbImgUrl": "http://www.pizzastore.loc/uploads/pizzas/2/small_napolitana_pizza.png",
      "ingredient": "tomato sauce, anchovies, olives, capers"
    },
    "pizza_size": 2,
    "sizeName": "Medium",
    "base_price": "11.08",
    "fee": "0.00",
    "slice": 6,
    "order": 2
  },
  {
    "pizza": {
      "id": 2,
      "name": "Veggie Pizza",
      "description": "When you want to jazz up your cheese pizza with color and texture, veggies are the perfect topping. And you’re only limited by your imagination. Everything from peppers and mushrooms, to eggplant and onions make for an exciting and tasty veggie pizza.",
      "imgUrl": "http://www.pizzastore.loc/uploads/pizzas/2/napolitana_pizza.png",
      "thumbImgUrl": "http://www.pizzastore.loc/uploads/pizzas/2/small_napolitana_pizza.png",
      "ingredient": "tomato sauce, anchovies, olives, capers"
    },
    "pizza_size": 3,
    "sizeName": "Large",
    "base_price": "12.64",
    "fee": "0.00",
    "slice": 8,
    "order": 3
  },
  {
    "pizza": {
      "id": 2,
      "name": "Veggie Pizza",
      "description": "When you want to jazz up your cheese pizza with color and texture, veggies are the perfect topping. And you’re only limited by your imagination. Everything from peppers and mushrooms, to eggplant and onions make for an exciting and tasty veggie pizza.",
      "imgUrl": "http://www.pizzastore.loc/uploads/pizzas/2/napolitana_pizza.png",
      "thumbImgUrl": "http://www.pizzastore.loc/uploads/pizzas/2/small_napolitana_pizza.png",
      "ingredient": "tomato sauce, anchovies, olives, capers"
    },
    "pizza_size": 4,
    "sizeName": "XLarge",
    "base_price": "14.20",
    "fee": "0.00",
    "slice": 10,
    "order": 4
  },
  {
    "pizza": {
      "id": 3,
      "name": "Pepperoni Pizza",
      "description": "There’s a reason this is one of the most popular types of pizza. Who doesn’t love biting into a crispy, salty round of pepperoni?",
      "imgUrl": "http://www.pizzastore.loc/uploads/pizzas/3/pepperoni_pizza.png",
      "thumbImgUrl": "http://www.pizzastore.loc/uploads/pizzas/3/small_pepperoni_pizza.png",
      "ingredient": "tomato sauce, mozzarella, mushrooms, ham, eggs, artichoke, cocktail sausages, green olives"
    },
    "pizza_size": 1,
    "sizeName": "Small",
    "base_price": "10.02",
    "fee": "0.00",
    "slice": 4,
    "order": 1
  },
  {
    "pizza": {
      "id": 3,
      "name": "Pepperoni Pizza",
      "description": "There’s a reason this is one of the most popular types of pizza. Who doesn’t love biting into a crispy, salty round of pepperoni?",
      "imgUrl": "http://www.pizzastore.loc/uploads/pizzas/3/pepperoni_pizza.png",
      "thumbImgUrl": "http://www.pizzastore.loc/uploads/pizzas/3/small_pepperoni_pizza.png",
      "ingredient": "tomato sauce, mozzarella, mushrooms, ham, eggs, artichoke, cocktail sausages, green olives"
    },
    "pizza_size": 2,
    "sizeName": "Medium",
    "base_price": "11.58",
    "fee": "0.00",
    "slice": 6,
    "order": 2
  },
  {
    "pizza": {
      "id": 3,
      "name": "Pepperoni Pizza",
      "description": "There’s a reason this is one of the most popular types of pizza. Who doesn’t love biting into a crispy, salty round of pepperoni?",
      "imgUrl": "http://www.pizzastore.loc/uploads/pizzas/3/pepperoni_pizza.png",
      "thumbImgUrl": "http://www.pizzastore.loc/uploads/pizzas/3/small_pepperoni_pizza.png",
      "ingredient": "tomato sauce, mozzarella, mushrooms, ham, eggs, artichoke, cocktail sausages, green olives"
    },
    "pizza_size": 3,
    "sizeName": "Large",
    "base_price": "13.14",
    "fee": "0.00",
    "slice": 8,
    "order": 3
  },
  {
    "pizza": {
      "id": 3,
      "name": "Pepperoni Pizza",
      "description": "There’s a reason this is one of the most popular types of pizza. Who doesn’t love biting into a crispy, salty round of pepperoni?",
      "imgUrl": "http://www.pizzastore.loc/uploads/pizzas/3/pepperoni_pizza.png",
      "thumbImgUrl": "http://www.pizzastore.loc/uploads/pizzas/3/small_pepperoni_pizza.png",
      "ingredient": "tomato sauce, mozzarella, mushrooms, ham, eggs, artichoke, cocktail sausages, green olives"
    },
    "pizza_size": 4,
    "sizeName": "XLarge",
    "base_price": "14.70",
    "fee": "0.00",
    "slice": 10,
    "order": 4
  },
  {
    "pizza": {
      "id": 4,
      "name": "Meat Pizza",
      "description": "If pepperoni just isn’t enough, and you’re looking for a pie with a bit more heft, a meat pizza is a perfect and popular choice. Pile on ground beef and sausage for a hearty meal.",
      "imgUrl": "http://www.pizzastore.loc/uploads/pizzas/4/margherita_pizza.png",
      "thumbImgUrl": "http://www.pizzastore.loc/uploads/pizzas/4/small_margherita_pizza.png",
      "ingredient": "tomato sauce, goat cheese, sun dried tomatoes, Maltese sausage, onion"
    },
    "pizza_size": 2,
    "sizeName": "Medium",
    "base_price": "12.98",
    "fee": "0.00",
    "slice": 6,
    "order": 2
  },
  {
    "pizza": {
      "id": 1,
      "name": "Cheese Pizza",
      "description": "It should be no shocker that a classic is the statistical favorite. Cheese pizza is one of the most popular choices. It will always be a simple, unadorned masterpiece on its own.",
      "imgUrl": "http://www.pizzastore.loc/uploads/pizzas/1/napolitana_pizza.png",
      "thumbImgUrl": "http://www.pizzastore.loc/uploads/pizzas/1/small_napolitana_pizza.png",
      "ingredient": "tomato sauce, anchovies, olives, capers"
    },
    "pizza_size": 1,
    "sizeName": "Small",
    "base_price": "11.02",
    "fee": "0.00",
    "slice": 4,
    "order": 1
  },
  {
    "pizza": {
      "id": 4,
      "name": "Meat Pizza",
      "description": "If pepperoni just isn’t enough, and you’re looking for a pie with a bit more heft, a meat pizza is a perfect and popular choice. Pile on ground beef and sausage for a hearty meal.",
      "imgUrl": "http://www.pizzastore.loc/uploads/pizzas/4/margherita_pizza.png",
      "thumbImgUrl": "http://www.pizzastore.loc/uploads/pizzas/4/small_margherita_pizza.png",
      "ingredient": "tomato sauce, goat cheese, sun dried tomatoes, Maltese sausage, onion"
    },
    "pizza_size": 1,
    "sizeName": "Small",
    "base_price": "11.42",
    "fee": "0.00",
    "slice": 4,
    "order": 1
  }
]