{
  "defaultCurrency": {
    "id": 1,
    "name": "US Dollar",
    "code": "USD",
    "symbol": "$",
    "exchange_rate": "1"
  },
  "currencies": [
    {
      "id": "usd",
      "name": "Us Dollar",
      "code": "USD",
      "symbol": "$"
    },
    {
      "id": "eur",
      "name": "EUR",
      "code": "EUR",
      "symbol": "€"
    }
  ],
  "user": null,
  "user_token": null,
  "base_url": "http://pizzadmin.worldnotifier.com",
  "api_prefix": "/api/v1/front/"
}

